…
df
```

    ## # A tibble: 160 x 4
    ##       id arm   week  observation
    ##    <dbl> <chr> <chr>       <dbl>
    ##  1     1 con   1            0.2 
    ##  2     1 con   2           -1.31
    ##  3     1 con   3            0.66
    ##  4     1 con   4            1.96
    ##  5     1 con   5            0.23
    ##  6     1 con   6            1.09
    ##  7     1 con   7            0.05
    ##  8     1 con   8            1.94
    ##  9     2 con   1            1.13
    ## 10     2 con   2           -0.88
    ## # ... with 150 more rows
…
